{
    "id": 3828,
    "due_date": null,
    "assigned_to": null,
    "title": "Тест 123",
    "created": "2023-06-07T19:28:21.021167",
    "modified": "2023-06-07T19:28:21.021172",
    "submitter_email": null,
    "status": 1,
    "on_hold": false,
    "description": null,
    "resolution": null,
    "priority": 1,
    "last_escalation": null,
    "secret_key": "a59ad16e-7f62-452c-a8c9-c912d40f8cbf",
    "queue": 1,
    "kbitem": null,
    "merged_to": null
}