{
    "id": 3808,
    "due_date": null,
    "assigned_to": null,
    "title": "ФЬГЧРБЛАРб",
    "created": "2023-06-07T17:44:47.336095",
    "modified": "2023-06-07T17:44:47.336100",
    "submitter_email": null,
    "status": 1,
    "on_hold": false,
    "description": null,
    "resolution": null,
    "priority": 1,
    "last_escalation": null,
    "secret_key": "64668be6-413c-4915-9f31-2cef9157f86b",
    "queue": 1,
    "kbitem": null,
    "merged_to": null
}